<?xml version="1.0" encoding="UTF-8" standalone="no"?>
<svg 
   width="367.91998pt"
   height="175.92pt"
   viewBox="0 0 367.91998 175.92"
   version="1.1"
   id="svg314"
   xmlns:xlink="http://www.w3.org/1999/xlink"
   xmlns="http://www.w3.org/2000/svg"
   xmlns:svg="http://www.w3.org/2000/svg" content="%3Cmxfile%20host%3D%22app.diagrams.net%22%20modified%3D%222023-11-12T18%3A42%3A36.305Z%22%20agent%3D%22Mozilla%2F5.0%20(Windows%20NT%2010.0%3B%20Win64%3B%20x64)%20AppleWebKit%2F537.36%20(KHTML%2C%20like%20Gecko)%20Chrome%2F119.0.0.0%20Safari%2F537.36%20Edg%2F119.0.0.0%22%20etag%3D%22a7-xKxyftG0Udu1T7iNp%22%20version%3D%2222.1.0%22%20type%3D%22onedrive%22%3E%20%20%20%3Cdiagram%20id%3D%22nJhEkv9raUtqEmcoRCtX%22%20name%3D%22P%C3%A1gina-7%22%3E%20%20%20%20%20%3CmxGraphModel%20dx%3D%22691%22%20dy%3D%22388%22%20grid%3D%221%22%20gridSize%3D%2210%22%20guides%3D%221%22%20tooltips%3D%221%22%20connect%3D%221%22%20arrows%3D%221%22%20fold%3D%221%22%20page%3D%220%22%20pageScale%3D%221%22%20pageWidth%3D%221100%22%20pageHeight%3D%22850%22%20math%3D%220%22%20shadow%3D%220%22%3E%20%20%20%20%20%20%20%3Croot%3E%20%20%20%20%20%20%20%20%20%3CmxCell%20id%3D%220%22%20%2F%3E%20%20%20%20%20%20%20%20%20%3CmxCell%20id%3D%221%22%20parent%3D%220%22%20%2F%3E%20%20%20%20%20%20%20%20%20%3CmxCell%20id%3D%22hXD30CdTxRJV122S_fIx-1%22%20value%3D%22%22%20style%3D%22endArrow%3Dnone%3Bdashed%3D1%3Bhtml%3D1%3Brounded%3D0%3BstrokeWidth%3D2%3BentryX%3D0.5%3BentryY%3D1%3BentryDx%3D0%3BentryDy%3D0%3BfontFamily%3DNimbus%20Roman%20No9%20L%3BfontSource%3Dhttps%253A%252F%252Fwww.1001fonts.com%252Fdownload%252Ffont%252Fnimbus-roman-no9-l.regular.otf%3BfontSize%3D10.9%3BfontStyle%3D0%22%20parent%3D%221%22%20edge%3D%221%22%3E%20%20%20%20%20%20%20%20%20%20%20%3CmxGeometry%20width%3D%2250%22%20height%3D%2250%22%20relative%3D%221%22%20as%3D%22geometry%22%3E%20%20%20%20%20%20%20%20%20%20%20%20%20%3CmxPoint%20x%3D%22600%22%20y%3D%22470%22%20as%3D%22sourcePoint%22%20%2F%3E%20%20%20%20%20%20%20%20%20%20%20%20%20%3CmxPoint%20x%3D%22600%22%20y%3D%22270%22%20as%3D%22targetPoint%22%20%2F%3E%20%20%20%20%20%20%20%20%20%20%20%3C%2FmxGeometry%3E%20%20%20%20%20%20%20%20%20%3C%2FmxCell%3E%20%20%20%20%20%20%20%20%20%3CmxCell%20id%3D%22hXD30CdTxRJV122S_fIx-2%22%20value%3D%22%22%20style%3D%22endArrow%3Dnone%3Bhtml%3D1%3Brounded%3D0%3BstrokeWidth%3D2%3BfontSize%3D10.9%3BfontStyle%3D0%3BfontFamily%3DNimbus%20Roman%20No9%20L%3BfontSource%3Dhttps%253A%252F%252Fwww.1001fonts.com%252Fdownload%252Ffont%252Fnimbus-roman-no9-l.regular.otf%3B%22%20parent%3D%221%22%20edge%3D%221%22%3E%20%20%20%20%20%20%20%20%20%20%20%3CmxGeometry%20width%3D%2250%22%20height%3D%2250%22%20relative%3D%221%22%20as%3D%22geometry%22%3E%20%20%20%20%20%20%20%20%20%20%20%20%20%3CmxPoint%20x%3D%22270%22%20y%3D%22390%22%20as%3D%22sourcePoint%22%20%2F%3E%20%20%20%20%20%20%20%20%20%20%20%20%20%3CmxPoint%20x%3D%22600%22%20y%3D%22390%22%20as%3D%22targetPoint%22%20%2F%3E%20%20%20%20%20%20%20%20%20%20%20%3C%2FmxGeometry%3E%20%20%20%20%20%20%20%20%20%3C%2FmxCell%3E%20%20%20%20%20%20%20%20%20%3CmxCell%20id%3D%22hXD30CdTxRJV122S_fIx-3%22%20value%3D%22%22%20style%3D%22endArrow%3Dclassic%3Bhtml%3D1%3Brounded%3D0%3BstrokeWidth%3D2%3BendFill%3D1%3BfontSize%3D10.9%3BfontStyle%3D0%3BfontFamily%3DNimbus%20Roman%20No9%20L%3BfontSource%3Dhttps%253A%252F%252Fwww.1001fonts.com%252Fdownload%252Ffont%252Fnimbus-roman-no9-l.regular.otf%3BstrokeColor%3D%23FF1818%3B%22%20parent%3D%221%22%20edge%3D%221%22%3E%20%20%20%20%20%20%20%20%20%20%20%3CmxGeometry%20width%3D%2250%22%20height%3D%2250%22%20relative%3D%221%22%20as%3D%22geometry%22%3E%20%20%20%20%20%20%20%20%20%20%20%20%20%3CmxPoint%20x%3D%22269.5%22%20y%3D%22390%22%20as%3D%22sourcePoint%22%20%2F%3E%20%20%20%20%20%20%20%20%20%20%20%20%20%3CmxPoint%20x%3D%22270%22%20y%3D%22440%22%20as%3D%22targetPoint%22%20%2F%3E%20%20%20%20%20%20%20%20%20%20%20%3C%2FmxGeometry%3E%20%20%20%20%20%20%20%20%20%3C%2FmxCell%3E%20%20%20%20%20%20%20%20%20%3CmxCell%20id%3D%22hXD30CdTxRJV122S_fIx-4%22%20style%3D%22edgeStyle%3DorthogonalEdgeStyle%3Brounded%3D0%3BorthogonalLoop%3D1%3BjettySize%3Dauto%3Bhtml%3D1%3BexitX%3D0.5%3BexitY%3D1%3BexitDx%3D0%3BexitDy%3D0%3BfontSize%3D10.9%3BfontStyle%3D0%3BstrokeWidth%3D2%3BfontFamily%3DNimbus%20Roman%20No9%20L%3BfontSource%3Dhttps%253A%252F%252Fwww.1001fonts.com%252Fdownload%252Ffont%252Fnimbus-roman-no9-l.regular.otf%3B%22%20parent%3D%221%22%20edge%3D%221%22%3E%20%20%20%20%20%20%20%20%20%20%20%3CmxGeometry%20relative%3D%221%22%20as%3D%22geometry%22%3E%20%20%20%20%20%20%20%20%20%20%20%20%20%3CmxPoint%20x%3D%22260%22%20y%3D%22390%22%20as%3D%22sourcePoint%22%20%2F%3E%20%20%20%20%20%20%20%20%20%20%20%20%20%3CmxPoint%20x%3D%22260%22%20y%3D%22390%22%20as%3D%22targetPoint%22%20%2F%3E%20%20%20%20%20%20%20%20%20%20%20%3C%2FmxGeometry%3E%20%20%20%20%20%20%20%20%20%3C%2FmxCell%3E%20%20%20%20%20%20%20%20%20%3CmxCell%20id%3D%22hXD30CdTxRJV122S_fIx-5%22%20value%3D%22%22%20style%3D%22endArrow%3Dclassic%3Bhtml%3D1%3Brounded%3D0%3BfontSize%3D10.9%3BstrokeWidth%3D2%3BendFill%3D1%3BfontStyle%3D0%3BfontFamily%3DNimbus%20Roman%20No9%20L%3BfontSource%3Dhttps%253A%252F%252Fwww.1001fonts.com%252Fdownload%252Ffont%252Fnimbus-roman-no9-l.regular.otf%3BstrokeColor%3D%231AFF1F%3B%22%20parent%3D%221%22%20edge%3D%221%22%3E%20%20%20%20%20%20%20%20%20%20%20%3CmxGeometry%20width%3D%2250%22%20height%3D%2250%22%20relative%3D%221%22%20as%3D%22geometry%22%3E%20%20%20%20%20%20%20%20%20%20%20%20%20%3CmxPoint%20x%3D%22600%22%20y%3D%22390%22%20as%3D%22sourcePoint%22%20%2F%3E%20%20%20%20%20%20%20%20%20%20%20%20%20%3CmxPoint%20x%3D%22600%22%20y%3D%22320%22%20as%3D%22targetPoint%22%20%2F%3E%20%20%20%20%20%20%20%20%20%20%20%3C%2FmxGeometry%3E%20%20%20%20%20%20%20%20%20%3C%2FmxCell%3E%20%20%20%20%20%20%20%20%20%3CmxCell%20id%3D%22hXD30CdTxRJV122S_fIx-6%22%20value%3D%22200.000%20COP%22%20style%3D%22text%3Bhtml%3D1%3BstrokeColor%3Dnone%3BfillColor%3Dnone%3Balign%3Dcenter%3BverticalAlign%3Dmiddle%3BwhiteSpace%3Dwrap%3Brounded%3D0%3BfontSize%3D10.9%3BfontStyle%3D0%3BstrokeWidth%3D2%3BfontFamily%3DNimbus%20Roman%20No9%20L%3BfontSource%3Dhttps%253A%252F%252Fwww.1001fonts.com%252Fdownload%252Ffont%252Fnimbus-roman-no9-l.regular.otf%3B%22%20parent%3D%221%22%20vertex%3D%221%22%3E%20%20%20%20%20%20%20%20%20%20%20%3CmxGeometry%20x%3D%22160%22%20y%3D%22430%22%20width%3D%22130%22%20height%3D%2230%22%20as%3D%22geometry%22%20%2F%3E%20%20%20%20%20%20%20%20%20%3C%2FmxCell%3E%20%20%20%20%20%20%20%20%20%3CmxCell%20id%3D%22hXD30CdTxRJV122S_fIx-7%22%20value%3D%22391.927%2C13%20COP%22%20style%3D%22text%3Bhtml%3D1%3BstrokeColor%3Dnone%3BfillColor%3Dnone%3Balign%3Dcenter%3BverticalAlign%3Dmiddle%3BwhiteSpace%3Dwrap%3Brounded%3D0%3BfontSize%3D10.9%3BfontStyle%3D0%3BstrokeWidth%3D2%3BfontFamily%3DNimbus%20Roman%20No9%20L%3BfontSource%3Dhttps%253A%252F%252Fwww.1001fonts.com%252Fdownload%252Ffont%252Fnimbus-roman-no9-l.regular.otf%3B%22%20parent%3D%221%22%20vertex%3D%221%22%3E%20%20%20%20%20%20%20%20%20%20%20%3CmxGeometry%20x%3D%22480%22%20y%3D%22310%22%20width%3D%22140%22%20height%3D%2230%22%20as%3D%22geometry%22%20%2F%3E%20%20%20%20%20%20%20%20%20%3C%2FmxCell%3E%20%20%20%20%20%20%20%20%20%3CmxCell%20id%3D%22hXD30CdTxRJV122S_fIx-8%22%20value%3D%221%22%20style%3D%22text%3Bhtml%3D1%3BstrokeColor%3Dnone%3BfillColor%3Dnone%3Balign%3Dcenter%3BverticalAlign%3Dmiddle%3BwhiteSpace%3Dwrap%3Brounded%3D0%3BfontSize%3D10.9%3BfontStyle%3D0%3BstrokeWidth%3D2%3BfontFamily%3DNimbus%20Roman%20No9%20L%3BfontSource%3Dhttps%253A%252F%252Fwww.1001fonts.com%252Fdownload%252Ffont%252Fnimbus-roman-no9-l.regular.otf%3B%22%20parent%3D%221%22%20vertex%3D%221%22%3E%20%20%20%20%20%20%20%20%20%20%20%3CmxGeometry%20x%3D%22290%22%20y%3D%22390%22%20width%3D%2260%22%20height%3D%2230%22%20as%3D%22geometry%22%20%2F%3E%20%20%20%20%20%20%20%20%20%3C%2FmxCell%3E%20%20%20%20%20%20%20%20%20%3CmxCell%20id%3D%22hXD30CdTxRJV122S_fIx-9%22%20value%3D%22%26lt%3Bfont%20style%3D%26quot%3Bfont-size%3A%2010.9px%3B%26quot%3B%26gt%3Bpmv%26lt%3B%2Ffont%26gt%3B%22%20style%3D%22text%3Bhtml%3D1%3BstrokeColor%3Dnone%3BfillColor%3Dnone%3Balign%3Dcenter%3BverticalAlign%3Dmiddle%3BwhiteSpace%3Dwrap%3Brounded%3D0%3BfontStyle%3D0%3BstrokeWidth%3D2%3BfontFamily%3DNimbus%20Roman%20No9%20L%3BfontSource%3Dhttps%253A%252F%252Fwww.1001fonts.com%252Fdownload%252Ffont%252Fnimbus-roman-no9-l.regular.otf%3BfontSize%3D10.9%3B%22%20parent%3D%221%22%20vertex%3D%221%22%3E%20%20%20%20%20%20%20%20%20%20%20%3CmxGeometry%20x%3D%22590%22%20y%3D%22370%22%20width%3D%2260%22%20height%3D%2230%22%20as%3D%22geometry%22%20%2F%3E%20%20%20%20%20%20%20%20%20%3C%2FmxCell%3E%20%20%20%20%20%20%20%20%20%3CmxCell%20id%3D%22hXD30CdTxRJV122S_fIx-10%22%20value%3D%22i%20%3D%20%3F%25%20pmv%22%20style%3D%22text%3Bhtml%3D1%3BstrokeColor%3Dnone%3BfillColor%3Dnone%3Balign%3Dcenter%3BverticalAlign%3Dmiddle%3BwhiteSpace%3Dwrap%3Brounded%3D0%3BfontStyle%3D0%3BfontSize%3D10.9%3BstrokeWidth%3D2%3BfontFamily%3DNimbus%20Roman%20No9%20L%3BfontSource%3Dhttps%253A%252F%252Fwww.1001fonts.com%252Fdownload%252Ffont%252Fnimbus-roman-no9-l.regular.otf%3B%22%20parent%3D%221%22%20vertex%3D%221%22%3E%20%20%20%20%20%20%20%20%20%20%20%3CmxGeometry%20x%3D%22407.5%22%20y%3D%22410%22%20width%3D%2285%22%20height%3D%2230%22%20as%3D%22geometry%22%20%2F%3E%20%20%20%20%20%20%20%20%20%3C%2FmxCell%3E%20%20%20%20%20%20%20%20%20%3CmxCell%20id%3D%22hXD30CdTxRJV122S_fIx-11%22%20value%3D%22%26lt%3Bspan%20style%3D%26quot%3Bfont-size%3A%2010.9px%3B%26quot%3B%26gt%3B10%26lt%3B%2Fspan%26gt%3B%22%20style%3D%22text%3Bhtml%3D1%3BstrokeColor%3Dnone%3BfillColor%3Dnone%3Balign%3Dcenter%3BverticalAlign%3Dmiddle%3BwhiteSpace%3Dwrap%3Brounded%3D0%3BfontSize%3D10.9%3BstrokeWidth%3D2%3BfontFamily%3DNimbus%20Roman%20No9%20L%3BfontSource%3Dhttps%253A%252F%252Fwww.1001fonts.com%252Fdownload%252Ffont%252Fnimbus-roman-no9-l.regular.otf%3BfontStyle%3D0%22%20parent%3D%221%22%20vertex%3D%221%22%3E%20%20%20%20%20%20%20%20%20%20%20%3CmxGeometry%20x%3D%22560%22%20y%3D%22390%22%20width%3D%2260%22%20height%3D%2230%22%20as%3D%22geometry%22%20%2F%3E%20%20%20%20%20%20%20%20%20%3C%2FmxCell%3E%20%20%20%20%20%20%20%20%20%3CmxCell%20id%3D%22hXD30CdTxRJV122S_fIx-12%22%20value%3D%22%26lt%3Bspan%20style%3D%26quot%3Bfont-size%3A%2010.9px%3B%26quot%3B%26gt%3Bn%20%3D%2010%20pmv%26lt%3B%2Fspan%26gt%3B%22%20style%3D%22text%3Bhtml%3D1%3BstrokeColor%3Dnone%3BfillColor%3Dnone%3Balign%3Dcenter%3BverticalAlign%3Dmiddle%3BwhiteSpace%3Dwrap%3Brounded%3D0%3BfontSize%3D10.9%3BstrokeWidth%3D2%3BfontFamily%3DNimbus%20Roman%20No9%20L%3BfontSource%3Dhttps%253A%252F%252Fwww.1001fonts.com%252Fdownload%252Ffont%252Fnimbus-roman-no9-l.regular.otf%3BfontStyle%3D0%22%20parent%3D%221%22%20vertex%3D%221%22%3E%20%20%20%20%20%20%20%20%20%20%20%3CmxGeometry%20x%3D%22410%22%20y%3D%22430%22%20width%3D%2280%22%20height%3D%2230%22%20as%3D%22geometry%22%20%2F%3E%20%20%20%20%20%20%20%20%20%3C%2FmxCell%3E%20%20%20%20%20%20%20%20%20%3CmxCell%20id%3D%22hXD30CdTxRJV122S_fIx-13%22%20value%3D%22pf%22%20style%3D%22text%3Bhtml%3D1%3BstrokeColor%3Dnone%3BfillColor%3Dnone%3Balign%3Dcenter%3BverticalAlign%3Dmiddle%3BwhiteSpace%3Dwrap%3Brounded%3D0%3BfontSize%3D10.9%3BstrokeWidth%3D2%3BfontFamily%3DNimbus%20Roman%20No9%20L%3BfontSource%3Dhttps%253A%252F%252Fwww.1001fonts.com%252Fdownload%252Ffont%252Fnimbus-roman-no9-l.regular.otf%3BfontStyle%3D0%22%20parent%3D%221%22%20vertex%3D%221%22%3E%20%20%20%20%20%20%20%20%20%20%20%3CmxGeometry%20x%3D%22570%22%20y%3D%22240%22%20width%3D%2260%22%20height%3D%2230%22%20as%3D%22geometry%22%20%2F%3E%20%20%20%20%20%20%20%20%20%3C%2FmxCell%3E%20%20%20%20%20%20%20%20%20%3CmxCell%20id%3D%22hXD30CdTxRJV122S_fIx-14%22%20value%3D%22%22%20style%3D%22endArrow%3Dnone%3Bhtml%3D1%3Brounded%3D0%3Bdashed%3D1%3BstrokeWidth%3D2%3BendFill%3D0%3BstrokeColor%3D%230A21B3%3BedgeStyle%3DorthogonalEdgeStyle%3Bcurved%3D1%3BstartArrow%3Dclassic%3BstartFill%3D1%3BfontFamily%3DNimbus%20Roman%20No9%20L%3BfontSource%3Dhttps%253A%252F%252Fwww.1001fonts.com%252Fdownload%252Ffont%252Fnimbus-roman-no9-l.regular.otf%3BfontSize%3D10.9%3BfontStyle%3D0%22%20parent%3D%221%22%20edge%3D%221%22%3E%20%20%20%20%20%20%20%20%20%20%20%3CmxGeometry%20width%3D%2250%22%20height%3D%2250%22%20relative%3D%221%22%20as%3D%22geometry%22%3E%20%20%20%20%20%20%20%20%20%20%20%20%20%3CmxPoint%20x%3D%22600%22%20y%3D%22390%22%20as%3D%22sourcePoint%22%20%2F%3E%20%20%20%20%20%20%20%20%20%20%20%20%20%3CmxPoint%20x%3D%22270%22%20y%3D%22390%22%20as%3D%22targetPoint%22%20%2F%3E%20%20%20%20%20%20%20%20%20%20%20%20%20%3CArray%20as%3D%22points%22%3E%20%20%20%20%20%20%20%20%20%20%20%20%20%20%20%3CmxPoint%20x%3D%22600%22%20y%3D%22470%22%20%2F%3E%20%20%20%20%20%20%20%20%20%20%20%20%20%20%20%3CmxPoint%20x%3D%22270%22%20y%3D%22470%22%20%2F%3E%20%20%20%20%20%20%20%20%20%20%20%20%20%3C%2FArray%3E%20%20%20%20%20%20%20%20%20%20%20%3C%2FmxGeometry%3E%20%20%20%20%20%20%20%20%20%3C%2FmxCell%3E%20%20%20%20%20%20%20%20%20%3CmxCell%20id%3D%22hXD30CdTxRJV122S_fIx-19%22%20value%3D%222%22%20style%3D%22text%3Bhtml%3D1%3BstrokeColor%3Dnone%3BfillColor%3Dnone%3Balign%3Dcenter%3BverticalAlign%3Dmiddle%3BwhiteSpace%3Dwrap%3Brounded%3D0%3BfontSize%3D10.9%3BfontStyle%3D0%3BstrokeWidth%3D2%3BfontFamily%3DNimbus%20Roman%20No9%20L%3BfontSource%3Dhttps%253A%252F%252Fwww.1001fonts.com%252Fdownload%252Ffont%252Fnimbus-roman-no9-l.regular.otf%3B%22%20parent%3D%221%22%20vertex%3D%221%22%3E%20%20%20%20%20%20%20%20%20%20%20%3CmxGeometry%20x%3D%22330%22%20y%3D%22390%22%20width%3D%2260%22%20height%3D%2230%22%20as%3D%22geometry%22%20%2F%3E%20%20%20%20%20%20%20%20%20%3C%2FmxCell%3E%20%20%20%20%20%20%20%20%20%3CmxCell%20id%3D%22qWkQRm2QZzZm44IJ0Nl_-2%22%20value%3D%22%26lt%3Bspan%20style%3D%26quot%3Bfont-size%3A%2010.9px%3B%26quot%3B%26gt%3B...%26lt%3B%2Fspan%26gt%3B%22%20style%3D%22text%3Bhtml%3D1%3BstrokeColor%3Dnone%3BfillColor%3Dnone%3Balign%3Dcenter%3BverticalAlign%3Dmiddle%3BwhiteSpace%3Dwrap%3Brounded%3D0%3BfontSize%3D10.9%3BstrokeWidth%3D2%3BfontFamily%3DNimbus%20Roman%20No9%20L%3BfontSource%3Dhttps%253A%252F%252Fwww.1001fonts.com%252Fdownload%252Ffont%252Fnimbus-roman-no9-l.regular.otf%3BfontStyle%3D0%22%20parent%3D%221%22%20vertex%3D%221%22%3E%20%20%20%20%20%20%20%20%20%20%20%3CmxGeometry%20x%3D%22430%22%20y%3D%22390%22%20width%3D%2260%22%20height%3D%2230%22%20as%3D%22geometry%22%20%2F%3E%20%20%20%20%20%20%20%20%20%3C%2FmxCell%3E%20%20%20%20%20%20%20%20%20%3CmxCell%20id%3D%22qWkQRm2QZzZm44IJ0Nl_-3%22%20value%3D%220%22%20style%3D%22text%3Bhtml%3D1%3BstrokeColor%3Dnone%3BfillColor%3Dnone%3Balign%3Dcenter%3BverticalAlign%3Dmiddle%3BwhiteSpace%3Dwrap%3Brounded%3D0%3BfontSize%3D10.9%3BfontStyle%3D0%3BstrokeWidth%3D2%3BfontFamily%3DNimbus%20Roman%20No9%20L%3BfontSource%3Dhttps%253A%252F%252Fwww.1001fonts.com%252Fdownload%252Ffont%252Fnimbus-roman-no9-l.regular.otf%3B%22%20parent%3D%221%22%20vertex%3D%221%22%3E%20%20%20%20%20%20%20%20%20%20%20%3CmxGeometry%20x%3D%22230%22%20y%3D%22390%22%20width%3D%2260%22%20height%3D%2230%22%20as%3D%22geometry%22%20%2F%3E%20%20%20%20%20%20%20%20%20%3C%2FmxCell%3E%20%20%20%20%20%20%20%3C%2Froot%3E%20%20%20%20%20%3C%2FmxGraphModel%3E%20%20%20%3C%2Fdiagram%3E%20%3C%2Fmxfile%3E%20">
  <defs
     id="defs68">
    <g
       id="g66">
      <g
         id="glyph-0-0">
        <path
           d="M 1.140625 0 L 1.140625 -5.109375 L 5.21875 -5.109375 L 5.21875 0 Z M 1.265625 -0.125 L 5.09375 -0.125 L 5.09375 -4.984375 L 1.265625 -4.984375 Z M 1.265625 -0.125 "
           id="path2" />
      </g>
      <g
         id="glyph-0-1">
        <path
           d="M 3.75 -1.046875 L 3.375 0 L 0.171875 0 L 0.171875 -0.140625 C 1.109375 -1.003906 1.769531 -1.707031 2.15625 -2.25 C 2.539063 -2.789063 2.734375 -3.285156 2.734375 -3.734375 C 2.734375 -4.078125 2.628906 -4.359375 2.421875 -4.578125 C 2.210938 -4.796875 1.957031 -4.90625 1.65625 -4.90625 C 1.394531 -4.90625 1.15625 -4.828125 0.9375 -4.671875 C 0.726563 -4.515625 0.578125 -4.289063 0.484375 -4 L 0.328125 -4 C 0.398438 -4.488281 0.570313 -4.863281 0.84375 -5.125 C 1.113281 -5.382813 1.457031 -5.515625 1.875 -5.515625 C 2.3125 -5.515625 2.675781 -5.375 2.96875 -5.09375 C 3.269531 -4.8125 3.421875 -4.484375 3.421875 -4.109375 C 3.421875 -3.828125 3.351563 -3.550781 3.21875 -3.28125 C 3.019531 -2.851563 2.703125 -2.394531 2.265625 -1.90625 C 1.597656 -1.1875 1.1875 -0.753906 1.03125 -0.609375 L 2.4375 -0.609375 C 2.726563 -0.609375 2.929688 -0.617188 3.046875 -0.640625 C 3.160156 -0.660156 3.265625 -0.703125 3.359375 -0.765625 C 3.453125 -0.828125 3.53125 -0.921875 3.59375 -1.046875 Z M 3.75 -1.046875 "
           id="path5" />
      </g>
      <g
         id="glyph-0-2">
        <path
           d="M 0.296875 -2.671875 C 0.296875 -3.285156 0.390625 -3.816406 0.578125 -4.265625 C 0.765625 -4.710938 1.007813 -5.046875 1.3125 -5.265625 C 1.550781 -5.429688 1.800781 -5.515625 2.0625 -5.515625 C 2.476563 -5.515625 2.847656 -5.304688 3.171875 -4.890625 C 3.585938 -4.367188 3.796875 -3.65625 3.796875 -2.75 C 3.796875 -2.125 3.703125 -1.59375 3.515625 -1.15625 C 3.335938 -0.71875 3.109375 -0.398438 2.828125 -0.203125 C 2.546875 -0.00390625 2.273438 0.09375 2.015625 0.09375 C 1.503906 0.09375 1.078125 -0.207031 0.734375 -0.8125 C 0.441406 -1.332031 0.296875 -1.953125 0.296875 -2.671875 Z M 1.078125 -2.578125 C 1.078125 -1.828125 1.171875 -1.21875 1.359375 -0.75 C 1.503906 -0.351563 1.726563 -0.15625 2.03125 -0.15625 C 2.175781 -0.15625 2.320313 -0.21875 2.46875 -0.34375 C 2.625 -0.476563 2.742188 -0.695313 2.828125 -1 C 2.953125 -1.457031 3.015625 -2.101563 3.015625 -2.9375 C 3.015625 -3.550781 2.953125 -4.066406 2.828125 -4.484375 C 2.722656 -4.785156 2.597656 -5 2.453125 -5.125 C 2.335938 -5.21875 2.207031 -5.265625 2.0625 -5.265625 C 1.875 -5.265625 1.710938 -5.179688 1.578125 -5.015625 C 1.378906 -4.796875 1.242188 -4.445313 1.171875 -3.96875 C 1.109375 -3.5 1.078125 -3.035156 1.078125 -2.578125 Z M 1.078125 -2.578125 "
           id="path8" />
      </g>
      <g
         id="glyph-0-3">
        <path
           d="M 1.015625 -0.78125 C 1.140625 -0.78125 1.242188 -0.734375 1.328125 -0.640625 C 1.421875 -0.554688 1.46875 -0.453125 1.46875 -0.328125 C 1.46875 -0.203125 1.421875 -0.0976563 1.328125 -0.015625 C 1.242188 0.0664063 1.140625 0.109375 1.015625 0.109375 C 0.898438 0.109375 0.796875 0.0664063 0.703125 -0.015625 C 0.617188 -0.0976563 0.578125 -0.203125 0.578125 -0.328125 C 0.578125 -0.453125 0.617188 -0.554688 0.703125 -0.640625 C 0.796875 -0.734375 0.898438 -0.78125 1.015625 -0.78125 Z M 1.015625 -0.78125 "
           id="path11" />
      </g>
      <g
         id="glyph-0-4" />
      <g
         id="glyph-0-5">
        <path
           d="M 4.921875 -5.53125 L 5.046875 -3.6875 L 4.921875 -3.6875 C 4.753906 -4.238281 4.515625 -4.632813 4.203125 -4.875 C 3.898438 -5.125 3.535156 -5.25 3.109375 -5.25 C 2.753906 -5.25 2.429688 -5.15625 2.140625 -4.96875 C 1.847656 -4.789063 1.617188 -4.5 1.453125 -4.09375 C 1.285156 -3.695313 1.203125 -3.203125 1.203125 -2.609375 C 1.203125 -2.117188 1.28125 -1.691406 1.4375 -1.328125 C 1.59375 -0.972656 1.828125 -0.703125 2.140625 -0.515625 C 2.460938 -0.328125 2.828125 -0.234375 3.234375 -0.234375 C 3.578125 -0.234375 3.882813 -0.304688 4.15625 -0.453125 C 4.425781 -0.597656 4.722656 -0.894531 5.046875 -1.34375 L 5.171875 -1.265625 C 4.898438 -0.785156 4.582031 -0.429688 4.21875 -0.203125 C 3.851563 0.015625 3.421875 0.125 2.921875 0.125 C 2.023438 0.125 1.332031 -0.207031 0.84375 -0.875 C 0.476563 -1.363281 0.296875 -1.945313 0.296875 -2.625 C 0.296875 -3.164063 0.414063 -3.660156 0.65625 -4.109375 C 0.894531 -4.554688 1.226563 -4.90625 1.65625 -5.15625 C 2.082031 -5.40625 2.546875 -5.53125 3.046875 -5.53125 C 3.441406 -5.53125 3.828125 -5.4375 4.203125 -5.25 C 4.316406 -5.1875 4.394531 -5.15625 4.4375 -5.15625 C 4.507813 -5.15625 4.570313 -5.179688 4.625 -5.234375 C 4.695313 -5.304688 4.75 -5.40625 4.78125 -5.53125 Z M 4.921875 -5.53125 "
           id="path15" />
      </g>
      <g
         id="glyph-0-6">
        <path
           d="M 2.984375 -5.53125 C 3.691406 -5.53125 4.300781 -5.265625 4.8125 -4.734375 C 5.332031 -4.203125 5.59375 -3.535156 5.59375 -2.734375 C 5.59375 -1.910156 5.332031 -1.226563 4.8125 -0.6875 C 4.289063 -0.144531 3.660156 0.125 2.921875 0.125 C 2.179688 0.125 1.554688 -0.140625 1.046875 -0.671875 C 0.535156 -1.203125 0.28125 -1.882813 0.28125 -2.71875 C 0.28125 -3.582031 0.578125 -4.285156 1.171875 -4.828125 C 1.671875 -5.296875 2.273438 -5.53125 2.984375 -5.53125 Z M 2.90625 -5.25 C 2.425781 -5.25 2.039063 -5.066406 1.75 -4.703125 C 1.382813 -4.253906 1.203125 -3.597656 1.203125 -2.734375 C 1.203125 -1.859375 1.390625 -1.179688 1.765625 -0.703125 C 2.054688 -0.335938 2.441406 -0.15625 2.921875 -0.15625 C 3.421875 -0.15625 3.835938 -0.351563 4.171875 -0.75 C 4.503906 -1.144531 4.671875 -1.769531 4.671875 -2.625 C 4.671875 -3.550781 4.488281 -4.242188 4.125 -4.703125 C 3.832031 -5.066406 3.425781 -5.25 2.90625 -5.25 Z M 2.90625 -5.25 "
           id="path18" />
      </g>
      <g
         id="glyph-0-7">
        <path
           d="M 1.671875 -2.53125 L 1.671875 -0.953125 C 1.671875 -0.617188 1.707031 -0.410156 1.78125 -0.328125 C 1.882813 -0.203125 2.039063 -0.140625 2.25 -0.140625 L 2.453125 -0.140625 L 2.453125 0 L 0.140625 0 L 0.140625 -0.140625 L 0.34375 -0.140625 C 0.570313 -0.140625 0.734375 -0.21875 0.828125 -0.375 C 0.878906 -0.457031 0.90625 -0.648438 0.90625 -0.953125 L 0.90625 -4.453125 C 0.90625 -4.796875 0.867188 -5.007813 0.796875 -5.09375 C 0.691406 -5.207031 0.539063 -5.265625 0.34375 -5.265625 L 0.140625 -5.265625 L 0.140625 -5.40625 L 2.125 -5.40625 C 2.601563 -5.40625 2.984375 -5.351563 3.265625 -5.25 C 3.546875 -5.15625 3.78125 -4.988281 3.96875 -4.75 C 4.15625 -4.519531 4.25 -4.242188 4.25 -3.921875 C 4.25 -3.472656 4.101563 -3.109375 3.8125 -2.828125 C 3.53125 -2.554688 3.117188 -2.421875 2.578125 -2.421875 C 2.453125 -2.421875 2.3125 -2.429688 2.15625 -2.453125 C 2.007813 -2.472656 1.847656 -2.5 1.671875 -2.53125 Z M 1.671875 -2.765625 C 1.816406 -2.734375 1.941406 -2.710938 2.046875 -2.703125 C 2.160156 -2.691406 2.253906 -2.6875 2.328125 -2.6875 C 2.609375 -2.6875 2.847656 -2.789063 3.046875 -3 C 3.242188 -3.21875 3.34375 -3.492188 3.34375 -3.828125 C 3.34375 -4.066406 3.296875 -4.285156 3.203125 -4.484375 C 3.109375 -4.679688 2.972656 -4.832031 2.796875 -4.9375 C 2.617188 -5.039063 2.421875 -5.09375 2.203125 -5.09375 C 2.066406 -5.09375 1.890625 -5.066406 1.671875 -5.015625 Z M 1.671875 -2.765625 "
           id="path21" />
      </g>
      <g
         id="glyph-0-8">
        <path
           d="M 0.421875 -4.375 C 0.566406 -4.738281 0.757813 -5.019531 1 -5.21875 C 1.238281 -5.414063 1.53125 -5.515625 1.875 -5.515625 C 2.3125 -5.515625 2.644531 -5.375 2.875 -5.09375 C 3.050781 -4.882813 3.140625 -4.660156 3.140625 -4.421875 C 3.140625 -4.023438 2.890625 -3.617188 2.390625 -3.203125 C 2.722656 -3.078125 2.972656 -2.890625 3.140625 -2.640625 C 3.316406 -2.398438 3.40625 -2.117188 3.40625 -1.796875 C 3.40625 -1.328125 3.253906 -0.921875 2.953125 -0.578125 C 2.566406 -0.128906 2.003906 0.09375 1.265625 0.09375 C 0.898438 0.09375 0.648438 0.0507813 0.515625 -0.03125 C 0.390625 -0.125 0.328125 -0.222656 0.328125 -0.328125 C 0.328125 -0.410156 0.359375 -0.476563 0.421875 -0.53125 C 0.484375 -0.59375 0.5625 -0.625 0.65625 -0.625 C 0.71875 -0.625 0.785156 -0.613281 0.859375 -0.59375 C 0.898438 -0.582031 1 -0.53125 1.15625 -0.4375 C 1.320313 -0.351563 1.4375 -0.304688 1.5 -0.296875 C 1.59375 -0.265625 1.695313 -0.25 1.8125 -0.25 C 2.082031 -0.25 2.316406 -0.351563 2.515625 -0.5625 C 2.710938 -0.769531 2.8125 -1.019531 2.8125 -1.3125 C 2.8125 -1.519531 2.765625 -1.722656 2.671875 -1.921875 C 2.609375 -2.078125 2.535156 -2.191406 2.453125 -2.265625 C 2.335938 -2.367188 2.179688 -2.460938 1.984375 -2.546875 C 1.785156 -2.640625 1.582031 -2.6875 1.375 -2.6875 L 1.234375 -2.6875 L 1.234375 -2.8125 C 1.453125 -2.832031 1.664063 -2.90625 1.875 -3.03125 C 2.082031 -3.15625 2.234375 -3.304688 2.328125 -3.484375 C 2.429688 -3.660156 2.484375 -3.851563 2.484375 -4.0625 C 2.484375 -4.332031 2.394531 -4.550781 2.21875 -4.71875 C 2.050781 -4.894531 1.835938 -4.984375 1.578125 -4.984375 C 1.171875 -4.984375 0.828125 -4.757813 0.546875 -4.3125 Z M 0.421875 -4.375 "
           id="path24" />
      </g>
      <g
         id="glyph-0-9">
        <path
           d="M 0.4375 0.109375 L 0.4375 -0.03125 C 0.78125 -0.0390625 1.097656 -0.125 1.390625 -0.28125 C 1.691406 -0.4375 1.976563 -0.707031 2.25 -1.09375 C 2.53125 -1.476563 2.726563 -1.90625 2.84375 -2.375 C 2.425781 -2.101563 2.046875 -1.96875 1.703125 -1.96875 C 1.328125 -1.96875 1.003906 -2.113281 0.734375 -2.40625 C 0.460938 -2.707031 0.328125 -3.097656 0.328125 -3.578125 C 0.328125 -4.054688 0.460938 -4.476563 0.734375 -4.84375 C 1.054688 -5.289063 1.484375 -5.515625 2.015625 -5.515625 C 2.453125 -5.515625 2.832031 -5.332031 3.15625 -4.96875 C 3.539063 -4.519531 3.734375 -3.957031 3.734375 -3.28125 C 3.734375 -2.6875 3.582031 -2.128906 3.28125 -1.609375 C 2.988281 -1.085938 2.582031 -0.65625 2.0625 -0.3125 C 1.632813 -0.03125 1.164063 0.109375 0.65625 0.109375 Z M 2.90625 -2.671875 C 2.957031 -3.015625 2.984375 -3.289063 2.984375 -3.5 C 2.984375 -3.757813 2.9375 -4.035156 2.84375 -4.328125 C 2.757813 -4.628906 2.632813 -4.859375 2.46875 -5.015625 C 2.3125 -5.179688 2.128906 -5.265625 1.921875 -5.265625 C 1.679688 -5.265625 1.472656 -5.15625 1.296875 -4.9375 C 1.117188 -4.726563 1.03125 -4.414063 1.03125 -4 C 1.03125 -3.4375 1.148438 -2.992188 1.390625 -2.671875 C 1.554688 -2.441406 1.769531 -2.328125 2.03125 -2.328125 C 2.144531 -2.328125 2.285156 -2.359375 2.453125 -2.421875 C 2.628906 -2.484375 2.78125 -2.566406 2.90625 -2.671875 Z M 2.90625 -2.671875 "
           id="path27" />
      </g>
      <g
         id="glyph-0-10">
        <path
           d="M 0.953125 -4.875 L 2.28125 -5.515625 L 2.40625 -5.515625 L 2.40625 -0.953125 C 2.40625 -0.648438 2.414063 -0.460938 2.4375 -0.390625 C 2.46875 -0.316406 2.519531 -0.257813 2.59375 -0.21875 C 2.675781 -0.175781 2.84375 -0.148438 3.09375 -0.140625 L 3.09375 0 L 1.046875 0 L 1.046875 -0.140625 C 1.304688 -0.148438 1.472656 -0.171875 1.546875 -0.203125 C 1.617188 -0.242188 1.671875 -0.296875 1.703125 -0.359375 C 1.734375 -0.429688 1.75 -0.628906 1.75 -0.953125 L 1.75 -3.875 C 1.75 -4.269531 1.734375 -4.519531 1.703125 -4.625 C 1.691406 -4.71875 1.660156 -4.78125 1.609375 -4.8125 C 1.554688 -4.851563 1.492188 -4.875 1.421875 -4.875 C 1.328125 -4.875 1.191406 -4.832031 1.015625 -4.75 Z M 0.953125 -4.875 "
           id="path30" />
      </g>
      <g
         id="glyph-0-11">
        <path
           d="M 0.828125 -5.40625 L 3.71875 -5.40625 L 3.71875 -5.265625 L 1.921875 0.109375 L 1.46875 0.109375 L 3.09375 -4.765625 L 1.59375 -4.765625 C 1.300781 -4.765625 1.085938 -4.726563 0.953125 -4.65625 C 0.734375 -4.53125 0.554688 -4.34375 0.421875 -4.09375 L 0.296875 -4.125 Z M 0.828125 -5.40625 "
           id="path33" />
      </g>
      <g
         id="glyph-0-12">
        <path
           d="M 0.4375 1.359375 L 0.4375 1.1875 C 0.707031 1.09375 0.914063 0.953125 1.0625 0.765625 C 1.21875 0.578125 1.296875 0.375 1.296875 0.15625 C 1.296875 0.101563 1.285156 0.0625 1.265625 0.03125 C 1.242188 0.0078125 1.222656 0 1.203125 0 C 1.179688 0 1.117188 0.0234375 1.015625 0.078125 C 0.972656 0.0976563 0.921875 0.109375 0.859375 0.109375 C 0.734375 0.109375 0.628906 0.0703125 0.546875 0 C 0.472656 -0.0820313 0.4375 -0.191406 0.4375 -0.328125 C 0.4375 -0.453125 0.484375 -0.5625 0.578125 -0.65625 C 0.679688 -0.75 0.804688 -0.796875 0.953125 -0.796875 C 1.128906 -0.796875 1.285156 -0.71875 1.421875 -0.5625 C 1.554688 -0.414063 1.625 -0.210938 1.625 0.046875 C 1.625 0.316406 1.53125 0.566406 1.34375 0.796875 C 1.15625 1.035156 0.851563 1.222656 0.4375 1.359375 Z M 0.4375 1.359375 "
           id="path36" />
      </g>
      <g
         id="glyph-0-13">
        <path
           d="M -0.015625 -3.296875 L 1.125 -3.75 L 1.265625 -3.75 L 1.265625 -2.890625 C 1.453125 -3.210938 1.640625 -3.4375 1.828125 -3.5625 C 2.023438 -3.695313 2.226563 -3.765625 2.4375 -3.765625 C 2.800781 -3.765625 3.109375 -3.617188 3.359375 -3.328125 C 3.660156 -2.984375 3.8125 -2.523438 3.8125 -1.953125 C 3.8125 -1.328125 3.628906 -0.804688 3.265625 -0.390625 C 2.960938 -0.0546875 2.585938 0.109375 2.140625 0.109375 C 1.941406 0.109375 1.769531 0.0820313 1.625 0.03125 C 1.519531 -0.0078125 1.398438 -0.09375 1.265625 -0.21875 L 1.265625 0.90625 C 1.265625 1.15625 1.28125 1.3125 1.3125 1.375 C 1.34375 1.445313 1.394531 1.5 1.46875 1.53125 C 1.550781 1.570313 1.691406 1.59375 1.890625 1.59375 L 1.890625 1.75 L -0.03125 1.75 L -0.03125 1.59375 L 0.078125 1.59375 C 0.222656 1.601563 0.347656 1.578125 0.453125 1.515625 C 0.492188 1.484375 0.53125 1.4375 0.5625 1.375 C 0.59375 1.3125 0.609375 1.144531 0.609375 0.875 L 0.609375 -2.578125 C 0.609375 -2.816406 0.597656 -2.96875 0.578125 -3.03125 C 0.554688 -3.09375 0.519531 -3.140625 0.46875 -3.171875 C 0.425781 -3.203125 0.363281 -3.21875 0.28125 -3.21875 C 0.21875 -3.21875 0.140625 -3.203125 0.046875 -3.171875 Z M 1.265625 -2.65625 L 1.265625 -1.296875 C 1.265625 -0.992188 1.28125 -0.796875 1.3125 -0.703125 C 1.34375 -0.554688 1.429688 -0.421875 1.578125 -0.296875 C 1.722656 -0.179688 1.90625 -0.125 2.125 -0.125 C 2.394531 -0.125 2.609375 -0.226563 2.765625 -0.4375 C 2.984375 -0.707031 3.09375 -1.085938 3.09375 -1.578125 C 3.09375 -2.140625 2.972656 -2.570313 2.734375 -2.875 C 2.554688 -3.082031 2.351563 -3.1875 2.125 -3.1875 C 2 -3.1875 1.875 -3.15625 1.75 -3.09375 C 1.644531 -3.039063 1.484375 -2.894531 1.265625 -2.65625 Z M 1.265625 -2.65625 "
           id="path39" />
      </g>
      <g
         id="glyph-0-14">
        <path
           d="M 1.34375 -2.984375 C 1.601563 -3.253906 1.757813 -3.40625 1.8125 -3.4375 C 1.925781 -3.539063 2.050781 -3.617188 2.1875 -3.671875 C 2.332031 -3.734375 2.472656 -3.765625 2.609375 -3.765625 C 2.835938 -3.765625 3.035156 -3.695313 3.203125 -3.5625 C 3.367188 -3.425781 3.476563 -3.234375 3.53125 -2.984375 C 3.800781 -3.304688 4.03125 -3.515625 4.21875 -3.609375 C 4.414063 -3.710938 4.613281 -3.765625 4.8125 -3.765625 C 5 -3.765625 5.164063 -3.710938 5.3125 -3.609375 C 5.46875 -3.515625 5.59375 -3.351563 5.6875 -3.125 C 5.738281 -2.96875 5.765625 -2.722656 5.765625 -2.390625 L 5.765625 -0.828125 C 5.765625 -0.597656 5.785156 -0.441406 5.828125 -0.359375 C 5.847656 -0.296875 5.894531 -0.242188 5.96875 -0.203125 C 6.039063 -0.160156 6.160156 -0.140625 6.328125 -0.140625 L 6.328125 0 L 4.515625 0 L 4.515625 -0.140625 L 4.59375 -0.140625 C 4.75 -0.140625 4.867188 -0.171875 4.953125 -0.234375 C 5.015625 -0.273438 5.0625 -0.34375 5.09375 -0.4375 C 5.101563 -0.476563 5.109375 -0.609375 5.109375 -0.828125 L 5.109375 -2.390625 C 5.109375 -2.691406 5.070313 -2.90625 5 -3.03125 C 4.894531 -3.195313 4.726563 -3.28125 4.5 -3.28125 C 4.363281 -3.28125 4.222656 -3.242188 4.078125 -3.171875 C 3.929688 -3.109375 3.757813 -2.976563 3.5625 -2.78125 L 3.546875 -2.734375 L 3.5625 -2.5625 L 3.5625 -0.828125 C 3.5625 -0.578125 3.570313 -0.421875 3.59375 -0.359375 C 3.625 -0.296875 3.675781 -0.242188 3.75 -0.203125 C 3.832031 -0.160156 3.96875 -0.140625 4.15625 -0.140625 L 4.15625 0 L 2.3125 0 L 2.3125 -0.140625 C 2.507813 -0.140625 2.644531 -0.160156 2.71875 -0.203125 C 2.800781 -0.253906 2.851563 -0.332031 2.875 -0.4375 C 2.894531 -0.476563 2.90625 -0.609375 2.90625 -0.828125 L 2.90625 -2.390625 C 2.90625 -2.691406 2.859375 -2.910156 2.765625 -3.046875 C 2.648438 -3.210938 2.488281 -3.296875 2.28125 -3.296875 C 2.132813 -3.296875 1.988281 -3.257813 1.84375 -3.1875 C 1.625 -3.0625 1.457031 -2.925781 1.34375 -2.78125 L 1.34375 -0.828125 C 1.34375 -0.585938 1.359375 -0.429688 1.390625 -0.359375 C 1.421875 -0.285156 1.46875 -0.226563 1.53125 -0.1875 C 1.601563 -0.15625 1.738281 -0.140625 1.9375 -0.140625 L 1.9375 0 L 0.125 0 L 0.125 -0.140625 C 0.289063 -0.140625 0.40625 -0.15625 0.46875 -0.1875 C 0.539063 -0.226563 0.59375 -0.285156 0.625 -0.359375 C 0.664063 -0.441406 0.6875 -0.597656 0.6875 -0.828125 L 0.6875 -2.21875 C 0.6875 -2.625 0.671875 -2.882813 0.640625 -3 C 0.628906 -3.082031 0.601563 -3.140625 0.5625 -3.171875 C 0.519531 -3.210938 0.460938 -3.234375 0.390625 -3.234375 C 0.316406 -3.234375 0.226563 -3.210938 0.125 -3.171875 L 0.0625 -3.3125 L 1.171875 -3.765625 L 1.34375 -3.765625 Z M 1.34375 -2.984375 "
           id="path42" />
      </g>
      <g
         id="glyph-0-15">
        <path
           d="M 0.0625 -3.65625 L 1.78125 -3.65625 L 1.78125 -3.5 L 1.671875 -3.5 C 1.566406 -3.5 1.488281 -3.472656 1.4375 -3.421875 C 1.382813 -3.378906 1.359375 -3.316406 1.359375 -3.234375 C 1.359375 -3.140625 1.382813 -3.023438 1.4375 -2.890625 L 2.296875 -0.875 L 3.140625 -2.96875 C 3.203125 -3.125 3.234375 -3.238281 3.234375 -3.3125 C 3.234375 -3.351563 3.222656 -3.382813 3.203125 -3.40625 C 3.171875 -3.445313 3.132813 -3.472656 3.09375 -3.484375 C 3.050781 -3.492188 2.957031 -3.5 2.8125 -3.5 L 2.8125 -3.65625 L 4.015625 -3.65625 L 4.015625 -3.5 C 3.867188 -3.488281 3.769531 -3.460938 3.71875 -3.421875 C 3.625 -3.335938 3.539063 -3.207031 3.46875 -3.03125 L 2.171875 0.109375 L 2.015625 0.109375 L 0.703125 -2.96875 C 0.648438 -3.113281 0.59375 -3.21875 0.53125 -3.28125 C 0.476563 -3.34375 0.410156 -3.394531 0.328125 -3.4375 C 0.285156 -3.457031 0.195313 -3.476563 0.0625 -3.5 Z M 0.0625 -3.65625 "
           id="path45" />
      </g>
      <g
         id="glyph-0-16">
        <path
           d="M 1.1875 -5.671875 C 1.300781 -5.671875 1.394531 -5.628906 1.46875 -5.546875 C 1.550781 -5.472656 1.59375 -5.378906 1.59375 -5.265625 C 1.59375 -5.160156 1.550781 -5.066406 1.46875 -4.984375 C 1.394531 -4.898438 1.300781 -4.859375 1.1875 -4.859375 C 1.070313 -4.859375 0.972656 -4.898438 0.890625 -4.984375 C 0.816406 -5.066406 0.78125 -5.160156 0.78125 -5.265625 C 0.78125 -5.378906 0.816406 -5.472656 0.890625 -5.546875 C 0.972656 -5.628906 1.070313 -5.671875 1.1875 -5.671875 Z M 1.515625 -3.765625 L 1.515625 -0.828125 C 1.515625 -0.597656 1.53125 -0.441406 1.5625 -0.359375 C 1.59375 -0.285156 1.640625 -0.226563 1.703125 -0.1875 C 1.773438 -0.15625 1.898438 -0.140625 2.078125 -0.140625 L 2.078125 0 L 0.296875 0 L 0.296875 -0.140625 C 0.472656 -0.140625 0.59375 -0.15625 0.65625 -0.1875 C 0.71875 -0.226563 0.765625 -0.285156 0.796875 -0.359375 C 0.835938 -0.441406 0.859375 -0.597656 0.859375 -0.828125 L 0.859375 -2.234375 C 0.859375 -2.628906 0.84375 -2.882813 0.8125 -3 C 0.800781 -3.082031 0.773438 -3.140625 0.734375 -3.171875 C 0.691406 -3.210938 0.632813 -3.234375 0.5625 -3.234375 C 0.488281 -3.234375 0.398438 -3.210938 0.296875 -3.171875 L 0.234375 -3.3125 L 1.34375 -3.765625 Z M 1.515625 -3.765625 "
           id="path48" />
      </g>
      <g
         id="glyph-0-17">
        <path
           d="M 0.140625 -3.515625 L 4.453125 -3.515625 L 4.453125 -3.203125 L 0.140625 -3.203125 Z M 0.140625 -2.21875 L 4.453125 -2.21875 L 4.453125 -1.890625 L 0.140625 -1.890625 Z M 0.140625 -2.21875 "
           id="path51" />
      </g>
      <g
         id="glyph-0-18">
        <path
           d="M 1.8125 -1.28125 L 1.640625 -1.28125 C 1.660156 -1.613281 1.703125 -1.890625 1.765625 -2.109375 C 1.835938 -2.328125 1.972656 -2.632813 2.171875 -3.03125 C 2.335938 -3.320313 2.441406 -3.546875 2.484375 -3.703125 C 2.535156 -3.867188 2.5625 -4.035156 2.5625 -4.203125 C 2.5625 -4.546875 2.46875 -4.816406 2.28125 -5.015625 C 2.101563 -5.210938 1.882813 -5.3125 1.625 -5.3125 C 1.394531 -5.3125 1.210938 -5.253906 1.078125 -5.140625 C 0.953125 -5.035156 0.890625 -4.921875 0.890625 -4.796875 C 0.890625 -4.691406 0.925781 -4.566406 1 -4.421875 C 1.082031 -4.285156 1.125 -4.179688 1.125 -4.109375 C 1.125 -4.003906 1.09375 -3.921875 1.03125 -3.859375 C 0.96875 -3.796875 0.894531 -3.765625 0.8125 -3.765625 C 0.695313 -3.765625 0.59375 -3.816406 0.5 -3.921875 C 0.40625 -4.035156 0.359375 -4.191406 0.359375 -4.390625 C 0.359375 -4.691406 0.488281 -4.957031 0.75 -5.1875 C 1.007813 -5.414063 1.359375 -5.53125 1.796875 -5.53125 C 2.347656 -5.53125 2.753906 -5.375 3.015625 -5.0625 C 3.203125 -4.820313 3.296875 -4.5625 3.296875 -4.28125 C 3.296875 -4.082031 3.253906 -3.878906 3.171875 -3.671875 C 3.085938 -3.472656 2.921875 -3.234375 2.671875 -2.953125 C 2.285156 -2.515625 2.050781 -2.203125 1.96875 -2.015625 C 1.882813 -1.835938 1.832031 -1.59375 1.8125 -1.28125 Z M 1.75 -0.78125 C 1.875 -0.78125 1.976563 -0.734375 2.0625 -0.640625 C 2.15625 -0.554688 2.203125 -0.453125 2.203125 -0.328125 C 2.203125 -0.210938 2.15625 -0.109375 2.0625 -0.015625 C 1.976563 0.0664063 1.875 0.109375 1.75 0.109375 C 1.632813 0.109375 1.53125 0.0664063 1.4375 -0.015625 C 1.351563 -0.109375 1.3125 -0.210938 1.3125 -0.328125 C 1.3125 -0.453125 1.351563 -0.554688 1.4375 -0.640625 C 1.53125 -0.734375 1.632813 -0.78125 1.75 -0.78125 Z M 1.75 -0.78125 "
           id="path54" />
      </g>
      <g
         id="glyph-0-19">
        <path
           d="M 5.546875 -5.53125 L 1.609375 0.21875 L 1.25 0.21875 L 5.203125 -5.53125 Z M 1.453125 -5.53125 C 1.804688 -5.53125 2.082031 -5.378906 2.28125 -5.078125 C 2.476563 -4.785156 2.578125 -4.445313 2.578125 -4.0625 C 2.578125 -3.601563 2.46875 -3.242188 2.25 -2.984375 C 2.03125 -2.734375 1.757813 -2.609375 1.4375 -2.609375 C 1.226563 -2.609375 1.035156 -2.664063 0.859375 -2.78125 C 0.691406 -2.894531 0.550781 -3.066406 0.4375 -3.296875 C 0.332031 -3.523438 0.28125 -3.78125 0.28125 -4.0625 C 0.28125 -4.34375 0.332031 -4.597656 0.4375 -4.828125 C 0.550781 -5.066406 0.695313 -5.242188 0.875 -5.359375 C 1.0625 -5.472656 1.253906 -5.53125 1.453125 -5.53125 Z M 1.4375 -5.3125 C 1.300781 -5.3125 1.179688 -5.226563 1.078125 -5.0625 C 0.972656 -4.90625 0.921875 -4.570313 0.921875 -4.0625 C 0.921875 -3.695313 0.953125 -3.414063 1.015625 -3.21875 C 1.054688 -3.070313 1.125 -2.957031 1.21875 -2.875 C 1.28125 -2.832031 1.347656 -2.8125 1.421875 -2.8125 C 1.554688 -2.8125 1.664063 -2.878906 1.75 -3.015625 C 1.882813 -3.222656 1.953125 -3.566406 1.953125 -4.046875 C 1.953125 -4.546875 1.890625 -4.898438 1.765625 -5.109375 C 1.671875 -5.242188 1.5625 -5.3125 1.4375 -5.3125 Z M 5.375 -2.6875 C 5.5625 -2.6875 5.75 -2.625 5.9375 -2.5 C 6.125 -2.382813 6.269531 -2.210938 6.375 -1.984375 C 6.476563 -1.753906 6.53125 -1.503906 6.53125 -1.234375 C 6.53125 -0.753906 6.414063 -0.390625 6.1875 -0.140625 C 5.957031 0.0976563 5.6875 0.21875 5.375 0.21875 C 5.1875 0.21875 5 0.15625 4.8125 0.03125 C 4.632813 -0.0820313 4.492188 -0.25 4.390625 -0.46875 C 4.285156 -0.6875 4.234375 -0.941406 4.234375 -1.234375 C 4.234375 -1.503906 4.285156 -1.753906 4.390625 -1.984375 C 4.492188 -2.222656 4.632813 -2.398438 4.8125 -2.515625 C 5 -2.628906 5.1875 -2.6875 5.375 -2.6875 Z M 5.375 -2.46875 C 5.25 -2.46875 5.140625 -2.398438 5.046875 -2.265625 C 4.921875 -2.078125 4.859375 -1.722656 4.859375 -1.203125 C 4.859375 -0.722656 4.921875 -0.390625 5.046875 -0.203125 C 5.140625 -0.0664063 5.25 0 5.375 0 C 5.5 0 5.609375 -0.0703125 5.703125 -0.21875 C 5.828125 -0.414063 5.890625 -0.75 5.890625 -1.21875 C 5.890625 -1.71875 5.828125 -2.066406 5.703125 -2.265625 C 5.609375 -2.398438 5.5 -2.46875 5.375 -2.46875 Z M 5.375 -2.46875 "
           id="path57" />
      </g>
      <g
         id="glyph-0-20">
        <path
           d="M 1.328125 -2.984375 C 1.753906 -3.503906 2.160156 -3.765625 2.546875 -3.765625 C 2.742188 -3.765625 2.914063 -3.710938 3.0625 -3.609375 C 3.207031 -3.515625 3.320313 -3.351563 3.40625 -3.125 C 3.457031 -2.957031 3.484375 -2.710938 3.484375 -2.390625 L 3.484375 -0.828125 C 3.484375 -0.597656 3.503906 -0.441406 3.546875 -0.359375 C 3.578125 -0.285156 3.625 -0.226563 3.6875 -0.1875 C 3.75 -0.15625 3.867188 -0.140625 4.046875 -0.140625 L 4.046875 0 L 2.25 0 L 2.25 -0.140625 L 2.3125 -0.140625 C 2.488281 -0.140625 2.609375 -0.164063 2.671875 -0.21875 C 2.742188 -0.269531 2.789063 -0.347656 2.8125 -0.453125 C 2.820313 -0.492188 2.828125 -0.617188 2.828125 -0.828125 L 2.828125 -2.328125 C 2.828125 -2.660156 2.785156 -2.898438 2.703125 -3.046875 C 2.617188 -3.191406 2.472656 -3.265625 2.265625 -3.265625 C 1.953125 -3.265625 1.640625 -3.09375 1.328125 -2.75 L 1.328125 -0.828125 C 1.328125 -0.578125 1.335938 -0.421875 1.359375 -0.359375 C 1.398438 -0.285156 1.453125 -0.226563 1.515625 -0.1875 C 1.578125 -0.15625 1.710938 -0.140625 1.921875 -0.140625 L 1.921875 0 L 0.109375 0 L 0.109375 -0.140625 L 0.1875 -0.140625 C 0.375 -0.140625 0.5 -0.1875 0.5625 -0.28125 C 0.625 -0.375 0.65625 -0.554688 0.65625 -0.828125 L 0.65625 -2.1875 C 0.65625 -2.625 0.644531 -2.890625 0.625 -2.984375 C 0.613281 -3.078125 0.585938 -3.140625 0.546875 -3.171875 C 0.503906 -3.210938 0.445313 -3.234375 0.375 -3.234375 C 0.300781 -3.234375 0.210938 -3.210938 0.109375 -3.171875 L 0.046875 -3.3125 L 1.15625 -3.765625 L 1.328125 -3.765625 Z M 1.328125 -2.984375 "
           id="path60" />
      </g>
      <g
         id="glyph-0-21">
        <path
           d="M 1.6875 -3.375 L 1.6875 -0.96875 C 1.6875 -0.625 1.722656 -0.40625 1.796875 -0.3125 C 1.890625 -0.195313 2.019531 -0.140625 2.1875 -0.140625 L 2.515625 -0.140625 L 2.515625 0 L 0.34375 0 L 0.34375 -0.140625 L 0.5 -0.140625 C 0.601563 -0.140625 0.695313 -0.164063 0.78125 -0.21875 C 0.875 -0.269531 0.9375 -0.34375 0.96875 -0.4375 C 1.007813 -0.53125 1.03125 -0.707031 1.03125 -0.96875 L 1.03125 -3.375 L 0.3125 -3.375 L 0.3125 -3.65625 L 1.03125 -3.65625 L 1.03125 -3.890625 C 1.03125 -4.253906 1.085938 -4.5625 1.203125 -4.8125 C 1.316406 -5.070313 1.492188 -5.28125 1.734375 -5.4375 C 1.972656 -5.59375 2.242188 -5.671875 2.546875 -5.671875 C 2.828125 -5.671875 3.082031 -5.578125 3.3125 -5.390625 C 3.46875 -5.273438 3.546875 -5.140625 3.546875 -4.984375 C 3.546875 -4.910156 3.507813 -4.835938 3.4375 -4.765625 C 3.375 -4.691406 3.300781 -4.65625 3.21875 -4.65625 C 3.15625 -4.65625 3.085938 -4.675781 3.015625 -4.71875 C 2.953125 -4.769531 2.875 -4.867188 2.78125 -5.015625 C 2.6875 -5.160156 2.597656 -5.253906 2.515625 -5.296875 C 2.429688 -5.347656 2.335938 -5.375 2.234375 -5.375 C 2.109375 -5.375 2.003906 -5.34375 1.921875 -5.28125 C 1.835938 -5.21875 1.773438 -5.113281 1.734375 -4.96875 C 1.703125 -4.832031 1.6875 -4.484375 1.6875 -3.921875 L 1.6875 -3.65625 L 2.625 -3.65625 L 2.625 -3.375 Z M 1.6875 -3.375 "
           id="path63" />
      </g>
    </g>
  </defs>
  <path
     fill-rule="nonzero"
     fill="rgb(0%, 0%, 0%)"
     fill-opacity="1"
     d="M 329.027344 172.382813 L 329.027344 167.886719 L 330.527344 167.886719 L 330.527344 172.382813 M 329.027344 163.390625 L 329.027344 158.890625 L 330.527344 158.890625 L 330.527344 163.390625 M 329.027344 154.394531 L 329.027344 149.898438 L 330.527344 149.898438 L 330.527344 154.394531 M 329.027344 145.402344 L 329.027344 140.902344 L 330.527344 140.902344 L 330.527344 145.402344 M 329.027344 136.40625 L 329.027344 131.910156 L 330.527344 131.910156 L 330.527344 136.40625 M 329.027344 127.414063 L 329.027344 122.917969 L 330.527344 122.917969 L 330.527344 127.414063 M 329.027344 118.417969 L 329.027344 113.921875 L 330.527344 113.921875 L 330.527344 118.417969 M 329.027344 109.425781 L 329.027344 104.929688 L 330.527344 104.929688 L 330.527344 109.425781 M 329.027344 100.433594 L 329.027344 95.933594 L 330.527344 95.933594 L 330.527344 100.433594 M 329.027344 91.4375 L 329.027344 86.941406 L 330.527344 86.941406 L 330.527344 91.4375 M 329.027344 82.445313 L 329.027344 77.945313 L 330.527344 77.945313 L 330.527344 82.445313 M 329.027344 73.449219 L 329.027344 68.953125 L 330.527344 68.953125 L 330.527344 73.449219 M 329.027344 64.457031 L 329.027344 59.960938 L 330.527344 59.960938 L 330.527344 64.457031 M 329.027344 55.460938 L 329.027344 50.964844 L 330.527344 50.964844 L 330.527344 55.460938 M 329.027344 46.46875 L 329.027344 41.972656 L 330.527344 41.972656 L 330.527344 46.46875 M 329.027344 37.472656 L 329.027344 32.976563 L 330.527344 32.976563 L 330.527344 37.472656 M 329.027344 28.480469 L 329.027344 23.984375 L 330.527344 23.984375 L 330.527344 28.480469 "
     id="path70" />
  <path
     fill="none"
     stroke-width="2"
     stroke-linecap="butt"
     stroke-linejoin="miter"
     stroke="rgb(0%, 0%, 0%)"
     stroke-opacity="1"
     stroke-miterlimit="10"
     d="M 110.001762 149.997665 L 440.001838 149.997665 "
     transform="matrix(0.749491, 0, 0, 0.749491, 0, 0)"
     id="path72" />
  <path
     fill="none"
     stroke-width="2"
     stroke-linecap="butt"
     stroke-linejoin="miter"
     stroke="rgb(100%, 9.408569%, 9.408569%)"
     stroke-opacity="1"
     stroke-miterlimit="10"
     d="M 109.501423 149.997665 L 109.918372 191.760392 "
     transform="matrix(0.749491, 0, 0, 0.749491, 0, 0)"
     id="path74" />
  <path
     fill-rule="nonzero"
     fill="rgb(100%, 9.408569%, 9.408569%)"
     fill-opacity="1"
     stroke-width="2"
     stroke-linecap="butt"
     stroke-linejoin="miter"
     stroke="rgb(100%, 9.408569%, 9.408569%)"
     stroke-opacity="1"
     stroke-miterlimit="10"
     d="M 109.980915 197.759257 L 105.900019 189.800729 L 109.918372 191.760392 L 113.900242 189.722551 Z M 109.980915 197.759257 "
     transform="matrix(0.749491, 0, 0, 0.749491, 0, 0)"
     id="path76" />
  <path
     fill="none"
     stroke-width="2"
     stroke-linecap="butt"
     stroke-linejoin="miter"
     stroke="rgb(10.198975%, 100%, 12.159729%)"
     stroke-opacity="1"
     stroke-miterlimit="10"
     d="M 440.001838 149.997665 L 440.001838 88.242198 "
     transform="matrix(0.749491, 0, 0, 0.749491, 0, 0)"
     id="path78" />
  <path
     fill-rule="nonzero"
     fill="rgb(10.198975%, 100%, 12.159729%)"
     fill-opacity="1"
     stroke-width="2"
     stroke-linecap="butt"
     stroke-linejoin="miter"
     stroke="rgb(10.198975%, 100%, 12.159729%)"
     stroke-opacity="1"
     stroke-miterlimit="10"
     d="M 440.001838 82.238122 L 443.999343 90.238345 L 440.001838 88.242198 L 435.99912 90.238345 Z M 440.001838 82.238122 "
     transform="matrix(0.749491, 0, 0, 0.749491, 0, 0)"
     id="path80" />
  <g
     fill="#000000"
     fill-opacity="1"
     id="g84">
    <use
       xlink:href="#glyph-0-1"
       x="26.466394"
       y="156.64359"
       id="use82" />
  </g>
  <g
     fill="#000000"
     fill-opacity="1"
     id="g88">
    <use
       xlink:href="#glyph-0-2"
       x="30.551119"
       y="156.64359"
       id="use86" />
  </g>
  <g
     fill="#000000"
     fill-opacity="1"
     id="g92">
    <use
       xlink:href="#glyph-0-2"
       x="34.635841"
       y="156.64359"
       id="use90" />
  </g>
  <g
     fill="#000000"
     fill-opacity="1"
     id="g96">
    <use
       xlink:href="#glyph-0-3"
       x="38.720562"
       y="156.64359"
       id="use94" />
  </g>
  <g
     fill="#000000"
     fill-opacity="1"
     id="g100">
    <use
       xlink:href="#glyph-0-2"
       x="40.76292"
       y="156.64359"
       id="use98" />
  </g>
  <g
     fill="#000000"
     fill-opacity="1"
     id="g104">
    <use
       xlink:href="#glyph-0-2"
       x="44.847641"
       y="156.64359"
       id="use102" />
  </g>
  <g
     fill="#000000"
     fill-opacity="1"
     id="g108">
    <use
       xlink:href="#glyph-0-2"
       x="48.932365"
       y="156.64359"
       id="use106" />
  </g>
  <g
     fill="#000000"
     fill-opacity="1"
     id="g112">
    <use
       xlink:href="#glyph-0-4"
       x="53.017086"
       y="156.64359"
       id="use110" />
  </g>
  <g
     fill="#000000"
     fill-opacity="1"
     id="g116">
    <use
       xlink:href="#glyph-0-5"
       x="55.059444"
       y="156.64359"
       id="use114" />
  </g>
  <g
     fill="#000000"
     fill-opacity="1"
     id="g120">
    <use
       xlink:href="#glyph-0-6"
       x="60.508392"
       y="156.64359"
       id="use118" />
  </g>
  <g
     fill="#000000"
     fill-opacity="1"
     id="g124">
    <use
       xlink:href="#glyph-0-7"
       x="66.408104"
       y="156.64359"
       id="use122" />
  </g>
  <g
     fill="#000000"
     fill-opacity="1"
     id="g128">
    <use
       xlink:href="#glyph-0-8"
       x="264.94501"
       y="66.704681"
       id="use126" />
  </g>
  <g
     fill="#000000"
     fill-opacity="1"
     id="g132">
    <use
       xlink:href="#glyph-0-9"
       x="269.02972"
       y="66.704681"
       id="use130" />
  </g>
  <g
     fill="#000000"
     fill-opacity="1"
     id="g136">
    <use
       xlink:href="#glyph-0-10"
       x="273.11444"
       y="66.704681"
       id="use134" />
  </g>
  <g
     fill="#000000"
     fill-opacity="1"
     id="g140">
    <use
       xlink:href="#glyph-0-3"
       x="277.19919"
       y="66.704681"
       id="use138" />
  </g>
  <g
     fill="#000000"
     fill-opacity="1"
     id="g144">
    <use
       xlink:href="#glyph-0-9"
       x="279.24155"
       y="66.704681"
       id="use142" />
  </g>
  <g
     fill="#000000"
     fill-opacity="1"
     id="g148">
    <use
       xlink:href="#glyph-0-1"
       x="283.32626"
       y="66.704681"
       id="use146" />
  </g>
  <g
     fill="#000000"
     fill-opacity="1"
     id="g152">
    <use
       xlink:href="#glyph-0-11"
       x="287.41098"
       y="66.704681"
       id="use150" />
  </g>
  <g
     fill="#000000"
     fill-opacity="1"
     id="g156">
    <use
       xlink:href="#glyph-0-12"
       x="291.4957"
       y="66.704681"
       id="use154" />
  </g>
  <g
     fill="#000000"
     fill-opacity="1"
     id="g160">
    <use
       xlink:href="#glyph-0-10"
       x="293.53806"
       y="66.704681"
       id="use158" />
  </g>
  <g
     fill="#000000"
     fill-opacity="1"
     id="g164">
    <use
       xlink:href="#glyph-0-8"
       x="297.62277"
       y="66.704681"
       id="use162" />
  </g>
  <g
     fill="#000000"
     fill-opacity="1"
     id="g168">
    <use
       xlink:href="#glyph-0-4"
       x="301.70749"
       y="66.704681"
       id="use166" />
  </g>
  <g
     fill="#000000"
     fill-opacity="1"
     id="g172">
    <use
       xlink:href="#glyph-0-5"
       x="303.74985"
       y="66.704681"
       id="use170" />
  </g>
  <g
     fill="#000000"
     fill-opacity="1"
     id="g176">
    <use
       xlink:href="#glyph-0-6"
       x="309.19882"
       y="66.704681"
       id="use174" />
  </g>
  <g
     fill="#000000"
     fill-opacity="1"
     id="g180">
    <use
       xlink:href="#glyph-0-7"
       x="315.09851"
       y="66.704681"
       id="use178" />
  </g>
  <g
     fill="#000000"
     fill-opacity="1"
     id="g184">
    <use
       xlink:href="#glyph-0-10"
       x="117.86914"
       y="126.66395"
       id="use182" />
  </g>
  <g
     fill="#000000"
     fill-opacity="1"
     id="g188">
    <use
       xlink:href="#glyph-0-13"
       x="337.49338"
       y="111.67413"
       id="use186" />
  </g>
  <g
     fill="#000000"
     fill-opacity="1"
     id="g192">
    <use
       xlink:href="#glyph-0-14"
       x="341.57809"
       y="111.67413"
       id="use190" />
  </g>
  <g
     fill="#000000"
     fill-opacity="1"
     id="g196">
    <use
       xlink:href="#glyph-0-15"
       x="347.93256"
       y="111.67413"
       id="use194" />
  </g>
  <g
     fill="#000000"
     fill-opacity="1"
     id="g200">
    <use
       xlink:href="#glyph-0-16"
       x="198.7439"
       y="141.65376"
       id="use198" />
  </g>
  <g
     fill="#000000"
     fill-opacity="1"
     id="g204">
    <use
       xlink:href="#glyph-0-4"
       x="201.01363"
       y="141.65376"
       id="use202" />
  </g>
  <g
     fill="#000000"
     fill-opacity="1"
     id="g210">
    <use
       xlink:href="#glyph-0-17"
       x="203.05598"
       y="141.65376"
       id="use206" />
    <use
       xlink:href="#glyph-0-4"
       x="207.66327"
       y="141.65376"
       id="use208" />
  </g>
  <g
     fill="#000000"
     fill-opacity="1"
     id="g214">
    <use
       xlink:href="#glyph-0-18"
       x="209.70563"
       y="141.65376"
       id="use212" />
  </g>
  <g
     fill="#000000"
     fill-opacity="1"
     id="g218">
    <use
       xlink:href="#glyph-0-19"
       x="213.3316"
       y="141.65376"
       id="use216" />
  </g>
  <g
     fill="#000000"
     fill-opacity="1"
     id="g222">
    <use
       xlink:href="#glyph-0-4"
       x="220.13681"
       y="141.65376"
       id="use220" />
  </g>
  <g
     fill="#000000"
     fill-opacity="1"
     id="g226">
    <use
       xlink:href="#glyph-0-13"
       x="222.17917"
       y="141.65376"
       id="use224" />
  </g>
  <g
     fill="#000000"
     fill-opacity="1"
     id="g230">
    <use
       xlink:href="#glyph-0-14"
       x="226.2639"
       y="141.65376"
       id="use228" />
  </g>
  <g
     fill="#000000"
     fill-opacity="1"
     id="g234">
    <use
       xlink:href="#glyph-0-15"
       x="232.61835"
       y="141.65376"
       id="use232" />
  </g>
  <g
     fill="#000000"
     fill-opacity="1"
     id="g238">
    <use
       xlink:href="#glyph-0-10"
       x="318.194"
       y="126.66395"
       id="use236" />
  </g>
  <g
     fill="#000000"
     fill-opacity="1"
     id="g242">
    <use
       xlink:href="#glyph-0-2"
       x="322.27872"
       y="126.66395"
       id="use240" />
  </g>
  <g
     fill="#000000"
     fill-opacity="1"
     id="g246">
    <use
       xlink:href="#glyph-0-20"
       x="198.59164"
       y="156.64359"
       id="use244" />
  </g>
  <g
     fill="#000000"
     fill-opacity="1"
     id="g250">
    <use
       xlink:href="#glyph-0-4"
       x="202.67638"
       y="156.64359"
       id="use248" />
  </g>
  <g
     fill="#000000"
     fill-opacity="1"
     id="g256">
    <use
       xlink:href="#glyph-0-17"
       x="204.71872"
       y="156.64359"
       id="use252" />
    <use
       xlink:href="#glyph-0-4"
       x="209.326"
       y="156.64359"
       id="use254" />
  </g>
  <g
     fill="#000000"
     fill-opacity="1"
     id="g260">
    <use
       xlink:href="#glyph-0-10"
       x="211.36836"
       y="156.64359"
       id="use258" />
  </g>
  <g
     fill="#000000"
     fill-opacity="1"
     id="g264">
    <use
       xlink:href="#glyph-0-2"
       x="215.45309"
       y="156.64359"
       id="use262" />
  </g>
  <g
     fill="#000000"
     fill-opacity="1"
     id="g268">
    <use
       xlink:href="#glyph-0-4"
       x="219.53781"
       y="156.64359"
       id="use266" />
  </g>
  <g
     fill="#000000"
     fill-opacity="1"
     id="g272">
    <use
       xlink:href="#glyph-0-13"
       x="221.58017"
       y="156.64359"
       id="use270" />
  </g>
  <g
     fill="#000000"
     fill-opacity="1"
     id="g276">
    <use
       xlink:href="#glyph-0-14"
       x="225.66489"
       y="156.64359"
       id="use274" />
  </g>
  <g
     fill="#000000"
     fill-opacity="1"
     id="g280">
    <use
       xlink:href="#glyph-0-15"
       x="232.01935"
       y="156.64359"
       id="use278" />
  </g>
  <g
     fill="#000000"
     fill-opacity="1"
     id="g284">
    <use
       xlink:href="#glyph-0-13"
       x="326.36813"
       y="14.240326"
       id="use282" />
  </g>
  <g
     fill="#000000"
     fill-opacity="1"
     id="g288">
    <use
       xlink:href="#glyph-0-21"
       x="330.45285"
       y="14.240326"
       id="use286" />
  </g>
  <path
     fill-rule="nonzero"
     fill="rgb(3.919983%, 12.939453%, 70.199585%)"
     fill-opacity="1"
     d="M 330.527344 118.597656 C 330.527344 120.167969 330.449219 121.703125 330.292969 123.207031 L 328.800781 123.050781 C 328.953125 121.601563 329.027344 120.117188 329.027344 118.597656 Z M 329.570313 127.71875 C 329.242188 129.222656 328.824219 130.6875 328.328125 132.117188 L 326.910156 131.621094 C 327.390625 130.25 327.789063 128.839844 328.105469 127.398438 Z M 326.542969 136.34375 C 325.871094 137.703125 325.109375 139.023438 324.265625 140.304688 L 323.011719 139.480469 C 323.824219 138.25 324.554688 136.980469 325.203125 135.679688 Z M 321.527344 143.972656 C 320.558594 145.128906 319.511719 146.25 318.386719 147.339844 L 317.347656 146.261719 C 318.433594 145.210938 319.445313 144.125 320.378906 143.011719 Z M 314.996094 150.324219 C 313.839844 151.253906 312.613281 152.15625 311.328125 153.03125 L 310.484375 151.789063 C 311.738281 150.941406 312.929688 150.0625 314.058594 149.15625 Z M 307.457031 155.457031 C 306.1875 156.195313 304.871094 156.90625 303.5 157.59375 L 302.824219 156.257813 C 304.167969 155.582031 305.460938 154.882813 306.703125 154.160156 Z M 299.320313 159.554688 C 297.992188 160.132813 296.621094 160.695313 295.207031 161.238281 L 294.671875 159.839844 C 296.0625 159.304688 297.414063 158.75 298.71875 158.179688 Z M 290.859375 162.808594 C 289.492188 163.269531 288.085938 163.71875 286.644531 164.148438 L 286.214844 162.714844 C 287.636719 162.285156 289.027344 161.84375 290.378906 161.386719 Z M 282.21875 165.398438 C 280.8125 165.769531 279.375 166.128906 277.910156 166.476563 L 277.566406 165.015625 C 279.019531 164.671875 280.441406 164.316406 281.832031 163.949219 Z M 273.464844 167.460938 C 272.019531 167.761719 270.546875 168.050781 269.046875 168.328125 L 268.773438 166.855469 C 270.265625 166.578125 271.726563 166.292969 273.160156 165.992188 Z M 264.628906 169.097656 C 263.136719 169.34375 261.621094 169.578125 260.074219 169.796875 L 259.863281 168.316406 C 261.394531 168.09375 262.902344 167.863281 264.386719 167.621094 Z M 255.703125 170.390625 C 254.222656 170.578125 252.722656 170.753906 251.199219 170.921875 L 251.035156 169.433594 C 252.550781 169.265625 254.042969 169.089844 255.515625 168.902344 Z M 246.683594 171.386719 C 245.226563 171.527344 243.753906 171.65625 242.257813 171.78125 L 242.136719 170.285156 C 243.621094 170.164063 245.089844 170.035156 246.539063 169.894531 Z M 237.722656 172.121094 C 236.234375 172.222656 234.730469 172.320313 233.210938 172.40625 L 233.125 170.910156 C 234.640625 170.824219 236.136719 170.726563 237.617188 170.625 Z M 228.769531 172.636719 C 227.273438 172.703125 225.761719 172.765625 224.234375 172.820313 L 224.179688 171.324219 C 225.703125 171.269531 227.210938 171.207031 228.703125 171.136719 Z M 219.691406 172.960938 C 218.230469 173 216.753906 173.03125 215.261719 173.054688 L 215.234375 171.558594 C 216.722656 171.53125 218.195313 171.5 219.652344 171.460938 Z M 210.742188 173.113281 L 206.144531 173.132813 L 206.136719 171.632813 L 210.734375 171.613281 Z M 201.535156 173.113281 C 200.015625 173.097656 198.511719 173.078125 197.015625 173.046875 L 197.046875 171.550781 C 198.53125 171.578125 200.035156 171.597656 201.550781 171.613281 Z M 192.585938 172.941406 C 191.058594 172.898438 189.546875 172.847656 188.046875 172.789063 L 188.105469 171.289063 C 189.601563 171.347656 191.105469 171.402344 192.628906 171.445313 Z M 183.507813 172.582031 C 182.011719 172.503906 180.53125 172.417969 179.066406 172.324219 L 179.164063 170.832031 C 180.621094 170.921875 182.09375 171.007813 183.585938 171.082031 Z M 174.558594 172.011719 C 173.03125 171.894531 171.519531 171.765625 170.023438 171.628906 L 170.160156 170.136719 C 171.644531 170.273438 173.152344 170.398438 174.675781 170.515625 Z M 165.601563 171.195313 C 164.074219 171.03125 162.574219 170.859375 161.089844 170.679688 L 161.273438 169.191406 C 162.746094 169.371094 164.242188 169.542969 165.757813 169.703125 Z M 156.59375 170.085938 C 155.113281 169.878906 153.660156 169.660156 152.222656 169.429688 L 152.460938 167.949219 C 153.886719 168.175781 155.332031 168.394531 156.800781 168.601563 Z M 147.6875 168.65625 C 146.195313 168.382813 144.722656 168.097656 143.277344 167.800781 L 143.582031 166.332031 C 145.015625 166.628906 146.472656 166.910156 147.957031 167.179688 Z M 138.882813 166.839844 C 137.378906 166.492188 135.90625 166.128906 134.460938 165.75 L 134.839844 164.300781 C 136.269531 164.675781 137.730469 165.035156 139.222656 165.382813 Z M 130.183594 164.566406 C 128.683594 164.125 127.21875 163.667969 125.789063 163.191406 L 126.261719 161.769531 C 127.675781 162.238281 129.125 162.691406 130.609375 163.128906 Z M 121.597656 161.714844 C 120.132813 161.167969 118.707031 160.601563 117.320313 160.011719 L 117.90625 158.632813 C 119.269531 159.210938 120.675781 159.773438 122.125 160.3125 Z M 113.257813 158.175781 C 111.847656 157.496094 110.480469 156.792969 109.164063 156.066406 L 109.886719 154.753906 C 111.179688 155.46875 112.523438 156.15625 113.910156 156.824219 Z M 105.304688 153.789063 C 103.984375 152.953125 102.71875 152.089844 101.507813 151.199219 L 102.398438 149.992188 C 103.578125 150.859375 104.816406 151.703125 106.105469 152.519531 Z M 97.960938 148.375 C 96.792969 147.367188 95.6875 146.328125 94.644531 145.257813 L 95.71875 144.210938 C 96.730469 145.25 97.804688 146.257813 98.941406 147.238281 Z M 91.605469 141.835938 C 90.644531 140.640625 89.753906 139.414063 88.933594 138.152344 L 90.191406 137.332031 C 90.984375 138.554688 91.84375 139.738281 92.773438 140.894531 Z M 86.640625 134.191406 C 85.949219 132.835938 85.332031 131.445313 84.785156 130.023438 L 86.183594 129.484375 C 86.710938 130.859375 87.308594 132.203125 87.976563 133.507813 Z M 83.371094 125.671875 C 82.980469 124.21875 82.65625 122.730469 82.402344 121.210938 L 83.878906 120.964844 C 84.125 122.4375 84.4375 123.875 84.820313 125.285156 Z M 81.855469 116.707031 C 81.75 115.304688 81.695313 113.875 81.695313 112.421875 L 83.195313 112.421875 C 83.195313 113.839844 83.246094 115.226563 83.351563 116.589844 Z M 81.855469 116.707031 "
     id="path290" />
  <path
     fill-rule="nonzero"
     fill="rgb(3.919983%, 12.939453%, 70.199585%)"
     fill-opacity="1"
     stroke-width="2"
     stroke-linecap="butt"
     stroke-linejoin="miter"
     stroke="rgb(3.919983%, 12.939453%, 70.199585%)"
     stroke-opacity="1"
     stroke-miterlimit="10"
     d="M 440.001838 152.23877 L 443.999343 160.238993 L 440.001838 158.237634 L 435.99912 160.238993 Z M 440.001838 152.23877 "
     transform="matrix(0.749491, 0, 0, 0.749491, 0, 0)"
     id="path292" />
  <g
     fill="#000000"
     fill-opacity="1"
     id="g296">
    <use
       xlink:href="#glyph-0-1"
       x="147.84879"
       y="126.66395"
       id="use294" />
  </g>
  <g
     fill="#000000"
     fill-opacity="1"
     id="g300">
    <use
       xlink:href="#glyph-0-3"
       x="221.77902"
       y="126.66395"
       id="use298" />
  </g>
  <g
     fill="#000000"
     fill-opacity="1"
     id="g304">
    <use
       xlink:href="#glyph-0-3"
       x="223.82138"
       y="126.66395"
       id="use302" />
  </g>
  <g
     fill="#000000"
     fill-opacity="1"
     id="g308">
    <use
       xlink:href="#glyph-0-3"
       x="225.86374"
       y="126.66395"
       id="use306" />
  </g>
  <g
     fill="#000000"
     fill-opacity="1"
     id="g312">
    <use
       xlink:href="#glyph-0-2"
       x="72.899696"
       y="126.66395"
       id="use310" />
  </g>
</svg>
